{
  "gitzone": {
    "projectType": "npm",
    "module": {
      "githost": "gitlab.com",
      "gitscope": "mojoio",
      "gitrepo": "medium",
      "shortDescription": "an unofficial medium.com API package",
      "npmPackagename": "@pushrocks/medium",
      "license": "MIT",
      "projectDomain": "mojo.io"
    }
  },
  "npmci": {
    "npmGlobalTools": [],
    "npmAccessLevel": "public"
  }
}